integration.vcd
$date
	Wed Feb 18 01:06:58 2026
$end
$version
	Icarus Verilog
$end
$timescale
	1ps
$end
$scope module tb_integration $end
$var wire 1 ! wbs_we $end
$var wire 1 " wbs_stb $end
$var wire 32 # wbs_dat [31:0] $end
$var wire 1 $ wbs_cyc $end
$var wire 32 % wbs_adr [31:0] $end
$var wire 1 & flash_mosi $end
$var wire 1 ' flash_csb $end
$var wire 1 ( flash_clk $end
$var reg 1 ) bypass_en $end
$var reg 1 * clk $end
$var reg 1 + flash_miso $end
$var reg 1 , reset $end
$var reg 1 - wbs_ack $end
$scope module dut $end
$var wire 1 ) bypass_en $end
$var wire 1 * clk $end
$var wire 1 + flash_miso $end
$var wire 1 . flash_tick $end
$var wire 1 / host_mosi $end
$var wire 1 , reset $end
$var wire 1 - wbs_ack $end
$var wire 1 0 word_ready $end
$var wire 1 ! wbs_we $end
$var wire 1 " wbs_stb $end
$var wire 32 1 wbs_dat [31:0] $end
$var wire 1 $ wbs_cyc $end
$var wire 32 2 wbs_adr [31:0] $end
$var wire 32 3 shifted_word [31:0] $end
$var wire 1 4 h_csb $end
$var wire 1 & flash_mosi $end
$var wire 1 ' flash_csb $end
$var wire 1 ( flash_clk $end
$var wire 1 5 fetch_en $end
$var reg 1 6 flash_clk_delayed $end
$scope module FSM $end
$var wire 1 ) bypass_en $end
$var wire 1 * clk $end
$var wire 1 , reset $end
$var wire 1 - wbs_ack $end
$var wire 1 0 word_ready $end
$var wire 32 7 shifted_word [31:0] $end
$var reg 1 8 done_loading $end
$var reg 1 5 fetch_en $end
$var reg 1 4 flash_csb $end
$var reg 4 9 row_counter [3:0] $end
$var reg 4 : soclet_counter [3:0] $end
$var reg 3 ; state [2:0] $end
$var reg 32 < wbs_adr [31:0] $end
$var reg 1 $ wbs_cyc $end
$var reg 32 = wbs_dat [31:0] $end
$var reg 1 " wbs_stb $end
$var reg 1 ! wbs_we $end
$upscope $end
$scope module slow_clk $end
$var wire 1 * clk $end
$var wire 1 5 enable $end
$var wire 1 , reset $end
$var reg 8 > clk_cnt [7:0] $end
$var reg 1 ( flash_clk $end
$upscope $end
$scope module word $end
$var wire 1 * clk $end
$var wire 1 ? reset $end
$var wire 1 + serial_in $end
$var wire 1 @ shift_en $end
$var reg 5 A bit_cnt [4:0] $end
$var reg 1 0 done_word $end
$var reg 32 B parallel_out [31:0] $end
$upscope $end
$upscope $end
$scope module ethan_sram $end
$var wire 8 C A [7:0] $end
$var wire 1 D CEN $end
$var wire 1 * CLK $end
$var wire 8 E D [7:0] $end
$var wire 1 F GWEN $end
$var wire 8 G Q [7:0] $end
$var wire 1 H VDD $end
$var wire 1 I VSS $end
$var wire 8 J WEN [7:0] $end
$var wire 8 K cd2 [7:0] $end
$var wire 8 L cd4 [7:0] $end
$var wire 8 M cd5 [7:0] $end
$var wire 1 N cen_flag $end
$var wire 8 O mem_0 [7:0] $end
$var wire 8 P mem_1 [7:0] $end
$var wire 8 Q mem_2 [7:0] $end
$var wire 8 R mem_3 [7:0] $end
$var wire 1 S no_ck_viol $end
$var wire 1 T no_hd_viol $end
$var wire 1 U no_st_viol $end
$var wire 1 V read_flag $end
$var wire 8 W we [7:0] $end
$var wire 1 X write_flag $end
$var reg 8 Y cdx [7:0] $end
$var reg 1 Z cen_dly $end
$var reg 1 [ cen_fell $end
$var reg 1 \ cen_flag_dly $end
$var reg 1 ] cen_not_rst $end
$var reg 1 ^ clk_dly $end
$var reg 8 _ marked_a [7:0] $end
$var reg 1 ` ntf_Tckh $end
$var reg 1 a ntf_Tckl $end
$var reg 1 b ntf_Tcyc $end
$var reg 1 c ntf_tah $end
$var reg 1 d ntf_tas $end
$var reg 1 e ntf_tch $end
$var reg 1 f ntf_tcs $end
$var reg 1 g ntf_tdh $end
$var reg 1 h ntf_tds $end
$var reg 1 i ntf_twh $end
$var reg 1 j ntf_twih $end
$var reg 1 k ntf_twis $end
$var reg 1 l ntf_tws $end
$var reg 8 m qo_reg [7:0] $end
$var reg 1 n read_flag_dly $end
$var reg 1 o write_flag_dly $end
$var integer 32 p i [31:0] $end
$upscope $end
$upscope $end
$enddefinitions $end
#0
$dumpvars
b100000000 p
0o
0n
b0 m
0l
0k
0j
0i
0h
0g
0f
0e
0d
0c
0b
0a
0`
b0 _
0^
0]
x\
0[
0Z
bx Y
0X
b11111111 W
0V
1U
1T
1S
b0 R
b0 Q
b0 P
b0 O
0N
bx M
bx L
b0 K
b0 J
zI
zH
b0 G
xF
bx E
xD
bx C
bx B
bx A
x@
1?
bx >
bx =
bx <
bx ;
bx :
bx 9
x8
bx 7
x6
x5
x4
bx 3
bx 2
bx 1
x0
0/
x.
x-
1,
0+
0*
0)
x(
x'
0&
bx %
x$
bx #
x"
x!
$end
#100
0\
#5000
0.
0@
1'
1D
0(
b0 >
08
05
14
0"
0$
b0 :
b0 9
b0 ;
00
b0 3
b0 7
b0 B
b0 A
0-
bx _
1*
#5100
1Z
1^
#10000
0*
#10100
0^
#15000
06
1*
#15100
1^
#20000
0*
#20100
0^
#25000
1*
#25100
1^
#30000
0*
#30100
0^
#35000
1*
#35100
1^
#40000
0*
#40100
0^
#45000
1*
#45100
1^
#50000
0*
#50100
0^
#55000
1*
#55100
1^
#60000
0*
#60100
0^
#65000
1*
#65100
1^
#70000
0*
#70100
0^
#75000
1*
#75100
1^
#80000
0*
#80100
0^
#85000
1*
#85100
1^
#90000
0*
#90100
0^
#95000
1*
#95100
1^
#100000
0?
0*
0,
#100100
0^
#105000
0'
b1 ;
04
1+
1*
#105100
1^
#110000
0*
#110100
0^
#115000
15
0+
1*
#115100
1^
#120000
0*
#120100
0^
#125000
1@
1.
1(
b1 >
1+
1*
#125100
1^
#130000
0*
#130100
0^
#135000
0@
0.
16
b1 A
b1 3
b1 7
b1 B
b10 >
0+
1*
#135100
1^
#140000
0*
#140100
0^
#145000
b11 >
1+
1*
#145100
1^
#150000
0*
#150100
0^
#155000
b100 >
0+
1*
#155100
1^
#160000
0*
#160100
0^
#165000
b101 >
1+
1*
#165100
1^
#170000
0*
#170100
0^
#175000
0(
b110 >
0+
1*
#175100
1^
#180000
0*
#180100
0^
#185000
b111 >
06
1+
1*
#185100
1^
#190000
0*
#190100
0^
#195000
b1000 >
0+
1*
#195100
1^
#200000
0*
#200100
0^
#205000
b1001 >
1+
1*
#205100
1^
#210000
0*
#210100
0^
#215000
b0 >
0+
1*
#215100
1^
#220000
0*
#220100
0^
#225000
1@
1.
1(
b1 >
1+
1*
#225100
1^
#230000
0*
#230100
0^
#235000
0@
0.
16
b10 A
b11 3
b11 7
b11 B
b10 >
0+
1*
#235100
1^
#240000
0*
#240100
0^
#245000
b11 >
1+
1*
#245100
1^
#250000
0*
#250100
0^
#255000
b100 >
0+
1*
#255100
1^
#260000
0*
#260100
0^
#265000
b101 >
1+
1*
#265100
1^
#270000
0*
#270100
0^
#275000
0(
b110 >
0+
1*
#275100
1^
#280000
0*
#280100
0^
#285000
b111 >
06
1+
1*
#285100
1^
#290000
0*
#290100
0^
#295000
b1000 >
0+
1*
#295100
1^
#300000
0*
#300100
0^
#305000
b1001 >
1+
1*
#305100
1^
#310000
0*
#310100
0^
#315000
b0 >
0+
1*
#315100
1^
#320000
0*
#320100
0^
#325000
1@
1.
1(
b1 >
1+
1*
#325100
1^
#330000
0*
#330100
0^
#335000
0@
0.
16
b11 A
b111 3
b111 7
b111 B
b10 >
0+
1*
#335100
1^
#340000
0*
#340100
0^
#345000
b11 >
1+
1*
#345100
1^
#350000
0*
#350100
0^
#355000
b100 >
0+
1*
#355100
1^
#360000
0*
#360100
0^
#365000
b101 >
1+
1*
#365100
1^
#370000
0*
#370100
0^
#375000
0(
b110 >
0+
1*
#375100
1^
#380000
0*
#380100
0^
#385000
b111 >
06
1+
1*
#385100
1^
#390000
0*
#390100
0^
#395000
b1000 >
0+
1*
#395100
1^
#400000
0*
#400100
0^
#405000
b1001 >
1+
1*
#405100
1^
#410000
0*
#410100
0^
#415000
b0 >
0+
1*
#415100
1^
#420000
0*
#420100
0^
#425000
1@
1.
1(
b1 >
1+
1*
#425100
1^
#430000
0*
#430100
0^
#435000
0@
0.
16
b100 A
b1111 3
b1111 7
b1111 B
b10 >
0+
1*
#435100
1^
#440000
0*
#440100
0^
#445000
b11 >
1+
1*
#445100
1^
#450000
0*
#450100
0^
#455000
b100 >
0+
1*
#455100
1^
#460000
0*
#460100
0^
#465000
b101 >
1+
1*
#465100
1^
#470000
0*
#470100
0^
#475000
0(
b110 >
0+
1*
#475100
1^
#480000
0*
#480100
0^
#485000
b111 >
06
1+
1*
#485100
1^
#490000
0*
#490100
0^
#495000
b1000 >
0+
1*
#495100
1^
#500000
0*
#500100
0^
#505000
b1001 >
1+
1*
#505100
1^
#510000
0*
#510100
0^
#515000
b0 >
0+
1*
#515100
1^
#520000
0*
#520100
0^
#525000
1@
1.
1(
b1 >
1+
1*
#525100
1^
#530000
0*
#530100
0^
#535000
0@
0.
16
b101 A
b11111 3
b11111 7
b11111 B
b10 >
0+
1*
#535100
1^
#540000
0*
#540100
0^
#545000
b11 >
1+
1*
#545100
1^
#550000
0*
#550100
0^
#555000
b100 >
0+
1*
#555100
1^
#560000
0*
#560100
0^
#565000
b101 >
1+
1*
#565100
1^
#570000
0*
#570100
0^
#575000
0(
b110 >
0+
1*
#575100
1^
#580000
0*
#580100
0^
#585000
b111 >
06
1+
1*
#585100
1^
#590000
0*
#590100
0^
#595000
b1000 >
0+
1*
#595100
1^
#600000
0*
#600100
0^
#605000
b1001 >
1+
1*
#605100
1^
#610000
0*
#610100
0^
#615000
b0 >
0+
1*
#615100
1^
#620000
0*
#620100
0^
#625000
1@
1.
1(
b1 >
1+
1*
#625100
1^
#630000
0*
#630100
0^
#635000
0@
0.
16
b110 A
b111111 3
b111111 7
b111111 B
b10 >
0+
1*
#635100
1^
#640000
0*
#640100
0^
#645000
b11 >
1+
1*
#645100
1^
#650000
0*
#650100
0^
#655000
b100 >
0+
1*
#655100
1^
#660000
0*
#660100
0^
#665000
b101 >
1+
1*
#665100
1^
#670000
0*
#670100
0^
#675000
0(
b110 >
0+
1*
#675100
1^
#680000
0*
#680100
0^
#685000
b111 >
06
1+
1*
#685100
1^
#690000
0*
#690100
0^
#695000
b1000 >
0+
1*
#695100
1^
#700000
0*
#700100
0^
#705000
b1001 >
1+
1*
#705100
1^
#710000
0*
#710100
0^
#715000
b0 >
0+
1*
#715100
1^
#720000
0*
#720100
0^
#725000
1@
1.
1(
b1 >
1+
1*
#725100
1^
#730000
0*
#730100
0^
#735000
0@
0.
16
b111 A
b1111111 3
b1111111 7
b1111111 B
b10 >
0+
1*
#735100
1^
#740000
0*
#740100
0^
#745000
b11 >
1+
1*
#745100
1^
#750000
0*
#750100
0^
#755000
b100 >
0+
1*
#755100
1^
#760000
0*
#760100
0^
#765000
b101 >
1+
1*
#765100
1^
#770000
0*
#770100
0^
#775000
0(
b110 >
0+
1*
#775100
1^
#780000
0*
#780100
0^
#785000
b111 >
06
1+
1*
#785100
1^
#790000
0*
#790100
0^
#795000
b1000 >
0+
1*
#795100
1^
#800000
0*
#800100
0^
#805000
b1001 >
1+
1*
#805100
1^
#810000
0*
#810100
0^
#815000
b0 >
0+
1*
#815100
1^
#820000
0*
#820100
0^
#825000
1@
1.
1(
b1 >
1+
1*
#825100
1^
#830000
0*
#830100
0^
#835000
0@
0.
16
b1000 A
b11111111 3
b11111111 7
b11111111 B
b10 >
0+
1*
#835100
1^
#840000
0*
#840100
0^
#845000
b11 >
1+
1*
#845100
1^
#850000
0*
#850100
0^
#855000
b100 >
0+
1*
#855100
1^
#860000
0*
#860100
0^
#865000
b101 >
1+
1*
#865100
1^
#870000
0*
#870100
0^
#875000
0(
b110 >
0+
1*
#875100
1^
#880000
0*
#880100
0^
#885000
b111 >
06
1+
1*
#885100
1^
#890000
0*
#890100
0^
#895000
b1000 >
0+
1*
#895100
1^
#900000
0*
#900100
0^
#905000
b1001 >
1+
1*
#905100
1^
#910000
0*
#910100
0^
#915000
b0 >
0+
1*
#915100
1^
#920000
0*
#920100
0^
#925000
1@
1.
1(
b1 >
1+
1*
#925100
1^
#930000
0*
#930100
0^
#935000
0@
0.
16
b1001 A
b111111111 3
b111111111 7
b111111111 B
b10 >
0+
1*
#935100
1^
#940000
0*
#940100
0^
#945000
b11 >
1+
1*
#945100
1^
#950000
0*
#950100
0^
#955000
b100 >
0+
1*
#955100
1^
#960000
0*
#960100
0^
#965000
b101 >
1+
1*
#965100
1^
#970000
0*
#970100
0^
#975000
0(
b110 >
0+
1*
#975100
1^
#980000
0*
#980100
0^
#985000
b111 >
06
1+
1*
#985100
1^
#990000
0*
#990100
0^
#995000
b1000 >
0+
1*
#995100
1^
#1000000
0*
#1000100
0^
#1005000
b1001 >
1+
1*
#1005100
1^
#1010000
0*
#1010100
0^
#1015000
b0 >
0+
1*
#1015100
1^
#1020000
0*
#1020100
0^
#1025000
1@
1.
1(
b1 >
1+
1*
#1025100
1^
#1030000
0*
#1030100
0^
#1035000
0@
0.
16
b1010 A
b1111111111 3
b1111111111 7
b1111111111 B
b10 >
0+
1*
#1035100
1^
#1040000
0*
#1040100
0^
#1045000
b11 >
1+
1*
#1045100
1^
#1050000
0*
#1050100
0^
#1055000
b100 >
0+
1*
#1055100
1^
#1060000
0*
#1060100
0^
#1065000
b101 >
1+
1*
#1065100
1^
#1070000
0*
#1070100
0^
#1075000
0(
b110 >
0+
1*
#1075100
1^
#1080000
0*
#1080100
0^
#1085000
b111 >
06
1+
1*
#1085100
1^
#1090000
0*
#1090100
0^
#1095000
b1000 >
0+
1*
#1095100
1^
#1100000
0*
#1100100
0^
#1105000
b1001 >
1*
#1105100
1^
#1110000
0*
#1110100
0^
#1115000
b0 >
1*
#1115100
1^
#1120000
0*
#1120100
0^
#1125000
1@
1.
1(
b1 >
1*
#1125100
1^
#1130000
0*
#1130100
0^
#1135000
0@
0.
16
b1011 A
b11111111110 3
b11111111110 7
b11111111110 B
b10 >
1*
#1135100
1^
#1140000
0*
#1140100
0^
#1145000
b11 >
1*
#1145100
1^
#1150000
0*
#1150100
0^
#1155000
b100 >
1*
#1155100
1^
#1160000
0*
#1160100
0^
#1165000
b101 >
1*
#1165100
1^
#1170000
0*
#1170100
0^
#1175000
0(
b110 >
1*
#1175100
1^
#1180000
0*
#1180100
0^
#1185000
b111 >
06
1*
#1185100
1^
#1190000
0*
#1190100
0^
#1195000
b1000 >
1*
#1195100
1^
#1200000
0*
#1200100
0^
#1205000
b1001 >
1*
#1205100
1^
#1210000
0*
#1210100
0^
#1215000
b0 >
1*
#1215100
1^
#1220000
0*
#1220100
0^
#1225000
1@
1.
1(
b1 >
1*
#1225100
1^
#1230000
0*
#1230100
0^
#1235000
0@
0.
16
b1100 A
b111111111100 3
b111111111100 7
b111111111100 B
b10 >
1*
#1235100
1^
#1240000
0*
#1240100
0^
#1245000
b11 >
1*
#1245100
1^
#1250000
0*
#1250100
0^
#1255000
b100 >
1*
#1255100
1^
#1260000
0*
#1260100
0^
#1265000
b101 >
1*
#1265100
1^
#1270000
0*
#1270100
0^
#1275000
0(
b110 >
1*
#1275100
1^
#1280000
0*
#1280100
0^
#1285000
b111 >
06
1*
#1285100
1^
#1290000
0*
#1290100
0^
#1295000
b1000 >
1*
#1295100
1^
#1300000
0*
#1300100
0^
#1305000
b1001 >
1*
#1305100
1^
#1310000
0*
#1310100
0^
#1315000
b0 >
1*
#1315100
1^
#1320000
0*
#1320100
0^
#1325000
1@
1.
1(
b1 >
1*
#1325100
1^
#1330000
0*
#1330100
0^
#1335000
0@
0.
16
b1101 A
b1111111111000 3
b1111111111000 7
b1111111111000 B
b10 >
1*
#1335100
1^
#1340000
0*
#1340100
0^
#1345000
b11 >
1*
#1345100
1^
#1350000
0*
#1350100
0^
#1355000
b100 >
1*
#1355100
1^
#1360000
0*
#1360100
0^
#1365000
b101 >
1*
#1365100
1^
#1370000
0*
#1370100
0^
#1375000
0(
b110 >
1*
#1375100
1^
#1380000
0*
#1380100
0^
#1385000
b111 >
06
1*
#1385100
1^
#1390000
0*
#1390100
0^
#1395000
b1000 >
1*
#1395100
1^
#1400000
0*
#1400100
0^
#1405000
b1001 >
1*
#1405100
1^
#1410000
0*
#1410100
0^
#1415000
b0 >
1*
#1415100
1^
#1420000
0*
#1420100
0^
#1425000
1@
1.
1(
b1 >
1*
#1425100
1^
#1430000
0*
#1430100
0^
#1435000
0@
0.
16
b1110 A
b11111111110000 3
b11111111110000 7
b11111111110000 B
b10 >
1*
#1435100
1^
#1440000
0*
#1440100
0^
#1445000
b11 >
1*
#1445100
1^
#1450000
0*
#1450100
0^
#1455000
b100 >
1*
#1455100
1^
#1460000
0*
#1460100
0^
#1465000
b101 >
1*
#1465100
1^
#1470000
0*
#1470100
0^
#1475000
0(
b110 >
1*
#1475100
1^
#1480000
0*
#1480100
0^
#1485000
b111 >
06
1*
#1485100
1^
#1490000
0*
#1490100
0^
#1495000
b1000 >
1*
#1495100
1^
#1500000
0*
#1500100
0^
#1505000
b1001 >
1*
#1505100
1^
#1510000
0*
#1510100
0^
#1515000
b0 >
1*
#1515100
1^
#1520000
0*
#1520100
0^
#1525000
1@
1.
1(
b1 >
1*
#1525100
1^
#1530000
0*
#1530100
0^
#1535000
0@
0.
16
b1111 A
b111111111100000 3
b111111111100000 7
b111111111100000 B
b10 >
1*
#1535100
1^
#1540000
0*
#1540100
0^
#1545000
b11 >
1*
#1545100
1^
#1550000
0*
#1550100
0^
#1555000
b100 >
1*
#1555100
1^
#1560000
0*
#1560100
0^
#1565000
b101 >
1*
#1565100
1^
#1570000
0*
#1570100
0^
#1575000
0(
b110 >
1*
#1575100
1^
#1580000
0*
#1580100
0^
#1585000
b111 >
06
1*
#1585100
1^
#1590000
0*
#1590100
0^
#1595000
b1000 >
1*
#1595100
1^
#1600000
0*
#1600100
0^
#1605000
b1001 >
1*
#1605100
1^
#1610000
0*
#1610100
0^
#1615000
b0 >
1*
#1615100
1^
#1620000
0*
#1620100
0^
#1625000
1@
1.
1(
b1 >
1*
#1625100
1^
#1630000
0*
#1630100
0^
#1635000
0@
0.
16
b10000 A
b1111111111000000 3
b1111111111000000 7
b1111111111000000 B
b10 >
1*
#1635100
1^
#1640000
0*
#1640100
0^
#1645000
b11 >
1*
#1645100
1^
#1650000
0*
#1650100
0^
#1655000
b100 >
1*
#1655100
1^
#1660000
0*
#1660100
0^
#1665000
b101 >
1*
#1665100
1^
#1670000
0*
#1670100
0^
#1675000
0(
b110 >
1*
#1675100
1^
#1680000
0*
#1680100
0^
#1685000
b111 >
06
1*
#1685100
1^
#1690000
0*
#1690100
0^
#1695000
b1000 >
1*
#1695100
1^
#1700000
0*
#1700100
0^
#1705000
b1001 >
1*
#1705100
1^
#1710000
0*
#1710100
0^
#1715000
b0 >
1*
#1715100
1^
#1720000
0*
#1720100
0^
#1725000
1@
1.
1(
b1 >
1*
#1725100
1^
#1730000
0*
#1730100
0^
#1735000
0@
0.
16
b10001 A
b11111111110000000 3
b11111111110000000 7
b11111111110000000 B
b10 >
1*
#1735100
1^
#1740000
0*
#1740100
0^
#1745000
b11 >
1*
#1745100
1^
#1750000
0*
#1750100
0^
#1755000
b100 >
1*
#1755100
1^
#1760000
0*
#1760100
0^
#1765000
b101 >
1*
#1765100
1^
#1770000
0*
#1770100
0^
#1775000
0(
b110 >
1*
#1775100
1^
#1780000
0*
#1780100
0^
#1785000
b111 >
06
1*
#1785100
1^
#1790000
0*
#1790100
0^
#1795000
b1000 >
1*
#1795100
1^
#1800000
0*
#1800100
0^
#1805000
b1001 >
1*
#1805100
1^
#1810000
0*
#1810100
0^
#1815000
b0 >
1*
#1815100
1^
#1820000
0*
#1820100
0^
#1825000
1@
1.
1(
b1 >
1*
#1825100
1^
#1830000
0*
#1830100
0^
#1835000
0@
0.
16
b10010 A
b111111111100000000 3
b111111111100000000 7
b111111111100000000 B
b10 >
1*
#1835100
1^
#1840000
0*
#1840100
0^
#1845000
b11 >
1*
#1845100
1^
#1850000
0*
#1850100
0^
#1855000
b100 >
1*
#1855100
1^
#1860000
0*
#1860100
0^
#1865000
b101 >
1*
#1865100
1^
#1870000
0*
#1870100
0^
#1875000
0(
b110 >
1*
#1875100
1^
#1880000
0*
#1880100
0^
#1885000
b111 >
06
1*
#1885100
1^
#1890000
0*
#1890100
0^
#1895000
b1000 >
1*
#1895100
1^
#1900000
0*
#1900100
0^
#1905000
b1001 >
1*
#1905100
1^
#1910000
0*
#1910100
0^
#1915000
b0 >
1*
#1915100
1^
#1920000
0*
#1920100
0^
#1925000
1@
1.
1(
b1 >
1*
#1925100
1^
#1930000
0*
#1930100
0^
#1935000
0@
0.
16
b10011 A
b1111111111000000000 3
b1111111111000000000 7
b1111111111000000000 B
b10 >
1*
#1935100
1^
#1940000
0*
#1940100
0^
#1945000
b11 >
1*
#1945100
1^
#1950000
0*
#1950100
0^
#1955000
b100 >
1*
#1955100
1^
#1960000
0*
#1960100
0^
#1965000
b101 >
1*
#1965100
1^
#1970000
0*
#1970100
0^
#1975000
0(
b110 >
1*
#1975100
1^
#1980000
0*
#1980100
0^
#1985000
b111 >
06
1*
#1985100
1^
#1990000
0*
#1990100
0^
#1995000
b1000 >
1*
#1995100
1^
#2000000
0*
#2000100
0^
#2005000
b1001 >
1*
#2005100
1^
#2010000
0*
#2010100
0^
#2015000
b0 >
1*
#2015100
1^
#2020000
0*
#2020100
0^
#2025000
1@
1.
1(
b1 >
1*
#2025100
1^
#2030000
0*
#2030100
0^
#2035000
0@
0.
16
b10100 A
b11111111110000000000 3
b11111111110000000000 7
b11111111110000000000 B
b10 >
1*
#2035100
1^
#2040000
0*
#2040100
0^
#2045000
b11 >
1*
#2045100
1^
#2050000
0*
#2050100
0^
#2055000
b100 >
1*
#2055100
1^
#2060000
0*
#2060100
0^
#2065000
b101 >
1*
#2065100
1^
#2070000
0*
#2070100
0^
#2075000
0(
b110 >
1*
#2075100
1^
#2080000
0*
#2080100
0^
#2085000
b111 >
06
1*
#2085100
1^
#2090000
0*
#2090100
0^
#2095000
b1000 >
1*
#2095100
1^
#2100000
0*
#2100100
0^
#2105000
b1001 >
1*
#2105100
1^
#2110000
0*
#2110100
0^
#2115000
b0 >
1*
#2115100
1^
#2120000
0*
#2120100
0^
#2125000
1@
1.
1(
b1 >
1*
#2125100
1^
#2130000
0*
#2130100
0^
#2135000
0@
0.
16
b10101 A
b111111111100000000000 3
b111111111100000000000 7
b111111111100000000000 B
b10 >
1*
#2135100
1^
#2140000
0*
#2140100
0^
#2145000
b11 >
1*
#2145100
1^
#2150000
0*
#2150100
0^
#2155000
b100 >
1*
#2155100
1^
#2160000
0*
#2160100
0^
#2165000
b101 >
1*
#2165100
1^
#2170000
0*
#2170100
0^
#2175000
0(
b110 >
1*
#2175100
1^
#2180000
0*
#2180100
0^
#2185000
b111 >
06
1*
#2185100
1^
#2190000
0*
#2190100
0^
#2195000
b1000 >
1*
#2195100
1^
#2200000
0*
#2200100
0^
#2205000
b1001 >
1*
#2205100
1^
#2210000
0*
#2210100
0^
#2215000
b0 >
1*
#2215100
1^
#2220000
0*
#2220100
0^
#2225000
1@
1.
1(
b1 >
1*
#2225100
1^
#2230000
0*
#2230100
0^
#2235000
0@
0.
16
b10110 A
b1111111111000000000000 3
b1111111111000000000000 7
b1111111111000000000000 B
b10 >
1*
#2235100
1^
#2240000
0*
#2240100
0^
#2245000
b11 >
1*
#2245100
1^
#2250000
0*
#2250100
0^
#2255000
b100 >
1*
#2255100
1^
#2260000
0*
#2260100
0^
#2265000
b101 >
1*
#2265100
1^
#2270000
0*
#2270100
0^
#2275000
0(
b110 >
1*
#2275100
1^
#2280000
0*
#2280100
0^
#2285000
b111 >
06
1*
#2285100
1^
#2290000
0*
#2290100
0^
#2295000
b1000 >
1*
#2295100
1^
#2300000
0*
#2300100
0^
#2305000
b1001 >
1*
#2305100
1^
#2310000
0*
#2310100
0^
#2315000
b0 >
1*
#2315100
1^
#2320000
0*
#2320100
0^
#2325000
1@
1.
1(
b1 >
1*
#2325100
1^
#2330000
0*
#2330100
0^
#2335000
0@
0.
16
b10111 A
b11111111110000000000000 3
b11111111110000000000000 7
b11111111110000000000000 B
b10 >
1*
#2335100
1^
#2340000
0*
#2340100
0^
#2345000
b11 >
1*
#2345100
1^
#2350000
0*
#2350100
0^
#2355000
b100 >
1*
#2355100
1^
#2360000
0*
#2360100
0^
#2365000
b101 >
1*
#2365100
1^
#2370000
0*
#2370100
0^
#2375000
0(
b110 >
1*
#2375100
1^
#2380000
0*
#2380100
0^
#2385000
b111 >
06
1*
#2385100
1^
#2390000
0*
#2390100
0^
#2395000
b1000 >
1*
#2395100
1^
#2400000
0*
#2400100
0^
#2405000
b1001 >
1*
#2405100
1^
#2410000
0*
#2410100
0^
#2415000
b0 >
1*
#2415100
1^
#2420000
0*
#2420100
0^
#2425000
1@
1.
1(
b1 >
1*
#2425100
1^
#2430000
0*
#2430100
0^
#2435000
0@
0.
16
b11000 A
b111111111100000000000000 3
b111111111100000000000000 7
b111111111100000000000000 B
b10 >
1*
#2435100
1^
#2440000
0*
#2440100
0^
#2445000
b11 >
1*
#2445100
1^
#2450000
0*
#2450100
0^
#2455000
b100 >
1*
#2455100
1^
#2460000
0*
#2460100
0^
#2465000
b101 >
1*
#2465100
1^
#2470000
0*
#2470100
0^
#2475000
0(
b110 >
1*
#2475100
1^
#2480000
0*
#2480100
0^
#2485000
b111 >
06
1*
#2485100
1^
#2490000
0*
#2490100
0^
#2495000
b1000 >
1*
#2495100
1^
#2500000
0*
#2500100
0^
#2505000
b1001 >
1*
#2505100
1^
#2510000
0*
#2510100
0^
#2515000
b0 >
1*
#2515100
1^
#2520000
0*
#2520100
0^
#2525000
1@
1.
1(
b1 >
1*
#2525100
1^
#2530000
0*
#2530100
0^
#2535000
0@
0.
16
b11001 A
b1111111111000000000000000 3
b1111111111000000000000000 7
b1111111111000000000000000 B
b10 >
1*
#2535100
1^
#2540000
0*
#2540100
0^
#2545000
b11 >
1*
#2545100
1^
#2550000
0*
#2550100
0^
#2555000
b100 >
1*
#2555100
1^
#2560000
0*
#2560100
0^
#2565000
b101 >
1*
#2565100
1^
#2570000
0*
#2570100
0^
#2575000
0(
b110 >
1*
#2575100
1^
#2580000
0*
#2580100
0^
#2585000
b111 >
06
1*
#2585100
1^
#2590000
0*
#2590100
0^
#2595000
b1000 >
1*
#2595100
1^
#2600000
0*
#2600100
0^
#2605000
b1001 >
1*
#2605100
1^
#2610000
0*
#2610100
0^
#2615000
b0 >
1*
#2615100
1^
#2620000
0*
#2620100
0^
#2625000
1@
1.
1(
b1 >
1*
#2625100
1^
#2630000
0*
#2630100
0^
#2635000
0@
0.
16
b11010 A
b11111111110000000000000000 3
b11111111110000000000000000 7
b11111111110000000000000000 B
b10 >
1*
#2635100
1^
#2640000
0*
#2640100
0^
#2645000
b11 >
1*
#2645100
1^
#2650000
0*
#2650100
0^
#2655000
b100 >
1*
#2655100
1^
#2660000
0*
#2660100
0^
#2665000
b101 >
1*
#2665100
1^
#2670000
0*
#2670100
0^
#2675000
0(
b110 >
1*
#2675100
1^
#2680000
0*
#2680100
0^
#2685000
b111 >
06
1*
#2685100
1^
#2690000
0*
#2690100
0^
#2695000
b1000 >
1*
#2695100
1^
#2700000
0*
#2700100
0^
#2705000
b1001 >
1*
#2705100
1^
#2710000
0*
#2710100
0^
#2715000
b0 >
1*
#2715100
1^
#2720000
0*
#2720100
0^
#2725000
1@
1.
1(
b1 >
1*
#2725100
1^
#2730000
0*
#2730100
0^
#2735000
0@
0.
16
b11011 A
b111111111100000000000000000 3
b111111111100000000000000000 7
b111111111100000000000000000 B
b10 >
1*
#2735100
1^
#2740000
0*
#2740100
0^
#2745000
b11 >
1*
#2745100
1^
#2750000
0*
#2750100
0^
#2755000
b100 >
1*
#2755100
1^
#2760000
0*
#2760100
0^
#2765000
b101 >
1*
#2765100
1^
#2770000
0*
#2770100
0^
#2775000
0(
b110 >
1*
#2775100
1^
#2780000
0*
#2780100
0^
#2785000
b111 >
06
1*
#2785100
1^
#2790000
0*
#2790100
0^
#2795000
b1000 >
1*
#2795100
1^
#2800000
0*
#2800100
0^
#2805000
b1001 >
1*
#2805100
1^
#2810000
0*
#2810100
0^
#2815000
b0 >
1*
#2815100
1^
#2820000
0*
#2820100
0^
#2825000
1@
1.
1(
b1 >
1*
#2825100
1^
#2830000
0*
#2830100
0^
#2835000
0@
0.
16
b11100 A
b1111111111000000000000000000 3
b1111111111000000000000000000 7
b1111111111000000000000000000 B
b10 >
1*
#2835100
1^
#2840000
0*
#2840100
0^
#2845000
b11 >
1*
#2845100
1^
#2850000
0*
#2850100
0^
#2855000
b100 >
1*
#2855100
1^
#2860000
0*
#2860100
0^
#2865000
b101 >
1*
#2865100
1^
#2870000
0*
#2870100
0^
#2875000
0(
b110 >
1*
#2875100
1^
#2880000
0*
#2880100
0^
#2885000
b111 >
06
1*
#2885100
1^
#2890000
0*
#2890100
0^
#2895000
b1000 >
1*
#2895100
1^
#2900000
0*
#2900100
0^
#2905000
b1001 >
1*
#2905100
1^
#2910000
0*
#2910100
0^
#2915000
b0 >
1*
#2915100
1^
#2920000
0*
#2920100
0^
#2925000
1@
1.
1(
b1 >
1*
#2925100
1^
#2930000
0*
#2930100
0^
#2935000
0@
0.
16
b11101 A
b11111111110000000000000000000 3
b11111111110000000000000000000 7
b11111111110000000000000000000 B
b10 >
1*
#2935100
1^
#2940000
0*
#2940100
0^
#2945000
b11 >
1*
#2945100
1^
#2950000
0*
#2950100
0^
#2955000
b100 >
1*
#2955100
1^
#2960000
0*
#2960100
0^
#2965000
b101 >
1*
#2965100
1^
#2970000
0*
